0.200 0.
A
M
1000
1.0000E+00
1.0163E+00
1.0328E+00
1.0496E+00
1.0667E+00
1.0840E+00
1.1016E+00
1.1196E+00
1.1378E+00
1.1563E+00
1.1751E+00
1.1942E+00
1.2136E+00
1.2334E+00
1.2534E+00
1.2738E+00
1.2945E+00
1.3156E+00
1.3370E+00
1.3587E+00
1.3808E+00
1.4033E+00
1.4261E+00
1.4493E+00
1.4729E+00
1.4968E+00
1.5212E+00
1.5459E+00
1.5711E+00
1.5966E+00
1.6226E+00
1.6490E+00
1.6758E+00
1.7031E+00
1.7308E+00
1.7589E+00
1.7875E+00
1.8166E+00
1.8461E+00
1.8762E+00
1.9067E+00
1.9377E+00
1.9692E+00
2.0012E+00
2.0338E+00
2.0669E+00
2.1005E+00
2.1347E+00
2.1694E+00
2.2047E+00
2.2405E+00
2.2770E+00
2.3140E+00
2.3516E+00
2.3899E+00
2.4288E+00
2.4683E+00
2.5084E+00
2.5492E+00
2.5907E+00
2.6328E+00
2.6756E+00
2.7192E+00
2.7634E+00
2.8083E+00
2.8540E+00
2.9004E+00
2.9476E+00
2.9955E+00
3.0443E+00
3.0938E+00
3.1441E+00
3.1952E+00
3.2472E+00
3.3000E+00
3.3537E+00
3.4083E+00
3.4637E+00
3.5200E+00
3.5773E+00
3.6355E+00
3.6946E+00
3.7547E+00
3.8158E+00
3.8778E+00
3.9409E+00
4.0050E+00
4.0701E+00
4.1363E+00
4.2036E+00
4.2720E+00
4.3415E+00
4.4121E+00
4.4839E+00
4.5568E+00
4.6309E+00
4.7062E+00
4.7828E+00
4.8606E+00
4.9396E+00
5.0200E+00
5.1016E+00
5.1846E+00
5.2689E+00
5.3546E+00
5.4417E+00
5.5302E+00
5.6202E+00
5.7116E+00
5.8045E+00
5.8989E+00
5.9948E+00
6.0923E+00
6.1914E+00
6.2921E+00
6.3945E+00
6.4985E+00
6.6042E+00
6.7116E+00
6.8208E+00
6.9317E+00
7.0445E+00
7.1590E+00
7.2755E+00
7.3938E+00
7.5141E+00
7.6363E+00
7.7605E+00
7.8867E+00
8.0150E+00
8.1454E+00
8.2779E+00
8.4125E+00
8.5493E+00
8.6884E+00
8.8297E+00
8.9733E+00
9.1193E+00
9.2676E+00
9.4183E+00
9.5715E+00
9.7272E+00
9.8854E+00
1.0046E+01
1.0210E+01
1.0376E+01
1.0544E+01
1.0716E+01
1.0890E+01
1.1067E+01
1.1247E+01
1.1430E+01
1.1616E+01
1.1805E+01
1.1997E+01
1.2192E+01
1.2391E+01
1.2592E+01
1.2797E+01
1.3005E+01
1.3217E+01
1.3432E+01
1.3650E+01
1.3872E+01
1.4098E+01
1.4327E+01
1.4560E+01
1.4797E+01
1.5038E+01
1.5282E+01
1.5531E+01
1.5783E+01
1.6040E+01
1.6301E+01
1.6566E+01
1.6836E+01
1.7109E+01
1.7388E+01
1.7670E+01
1.7958E+01
1.8250E+01
1.8547E+01
1.8848E+01
1.9155E+01
1.9467E+01
1.9783E+01
2.0105E+01
2.0432E+01
2.0764E+01
2.1102E+01
2.1445E+01
2.1794E+01
2.2149E+01
2.2509E+01
2.2875E+01
2.3247E+01
2.3625E+01
2.4009E+01
2.4400E+01
2.4797E+01
2.5200E+01
2.5610E+01
2.6026E+01
2.6450E+01
2.6880E+01
2.7317E+01
2.7762E+01
2.8213E+01
2.8672E+01
2.9138E+01
2.9612E+01
3.0094E+01
3.0583E+01
3.1081E+01
3.1586E+01
3.2100E+01
3.2622E+01
3.3153E+01
3.3692E+01
3.4240E+01
3.4797E+01
3.5363E+01
3.5938E+01
3.6523E+01
3.7117E+01
3.7720E+01
3.8334E+01
3.8957E+01
3.9591E+01
4.0235E+01
4.0889E+01
4.1555E+01
4.2230E+01
4.2917E+01
4.3615E+01
4.4325E+01
4.5046E+01
4.5778E+01
4.6523E+01
4.7280E+01
4.8049E+01
4.8830E+01
4.9624E+01
5.0432E+01
5.1252E+01
5.2085E+01
5.2933E+01
5.3794E+01
5.4669E+01
5.5558E+01
5.6461E+01
5.7380E+01
5.8313E+01
5.9262E+01
6.0225E+01
6.1205E+01
6.2200E+01
6.3212E+01
6.4240E+01
6.5285E+01
6.6347E+01
6.7426E+01
6.8523E+01
6.9637E+01
7.0770E+01
7.1921E+01
7.3091E+01
7.4280E+01
7.5488E+01
7.6716E+01
7.7964E+01
7.9232E+01
8.0520E+01
8.1830E+01
8.3161E+01
8.4514E+01
8.5888E+01
8.7285E+01
8.8705E+01
9.0148E+01
9.1614E+01
9.3104E+01
9.4618E+01
9.6157E+01
9.7721E+01
9.9311E+01
1.0093E+02
1.0257E+02
1.0424E+02
1.0593E+02
1.0765E+02
1.0941E+02
1.1118E+02
1.1299E+02
1.1483E+02
1.1670E+02
1.1860E+02
1.2053E+02
1.2249E+02
1.2448E+02
1.2650E+02
1.2856E+02
1.3065E+02
1.3278E+02
1.3494E+02
1.3713E+02
1.3936E+02
1.4163E+02
1.4393E+02
1.4627E+02
1.4865E+02
1.5107E+02
1.5353E+02
1.5602E+02
1.5856E+02
1.6114E+02
1.6376E+02
1.6643E+02
1.6913E+02
1.7188E+02
1.7468E+02
1.7752E+02
1.8041E+02
1.8334E+02
1.8632E+02
1.8936E+02
1.9244E+02
1.9557E+02
1.9875E+02
2.0198E+02
2.0526E+02
2.0860E+02
2.1200E+02
2.1544E+02
2.1895E+02
2.2251E+02
2.2613E+02
2.2981E+02
2.3354E+02
2.3734E+02
2.4120E+02
2.4513E+02
2.4911E+02
2.5316E+02
2.5728E+02
2.6147E+02
2.6572E+02
2.7004E+02
2.7443E+02
2.7890E+02
2.8343E+02
2.8804E+02
2.9273E+02
2.9749E+02
3.0233E+02
3.0725E+02
3.1224E+02
3.1732E+02
3.2248E+02
3.2773E+02
3.3306E+02
3.3848E+02
3.4398E+02
3.4958E+02
3.5526E+02
3.6104E+02
3.6691E+02
3.7288E+02
3.7895E+02
3.8511E+02
3.9137E+02
3.9774E+02
4.0421E+02
4.1078E+02
4.1747E+02
4.2426E+02
4.3116E+02
4.3817E+02
4.4530E+02
4.5254E+02
4.5990E+02
4.6738E+02
4.7498E+02
4.8271E+02
4.9056E+02
4.9854E+02
5.0665E+02
5.1489E+02
5.2326E+02
5.3177E+02
5.4042E+02
5.4921E+02
5.5814E+02
5.6722E+02
5.7645E+02
5.8582E+02
5.9535E+02
6.0504E+02
6.1488E+02
6.2488E+02
6.3504E+02
6.4537E+02
6.5587E+02
6.6654E+02
6.7738E+02
6.8840E+02
6.9959E+02
7.1097E+02
7.2253E+02
7.3429E+02
7.4623E+02
7.5837E+02
7.7070E+02
7.8324E+02
7.9598E+02
8.0892E+02
8.2208E+02
8.3545E+02
8.4904E+02
8.6285E+02
8.7689E+02
8.9115E+02
9.0564E+02
9.2037E+02
9.3534E+02
9.5056E+02
9.6602E+02
9.8173E+02
9.9770E+02
1.0139E+03
1.0304E+03
1.0472E+03
1.0642E+03
1.0815E+03
1.0991E+03
1.1170E+03
1.1352E+03
1.1536E+03
1.1724E+03
1.1915E+03
1.2108E+03
1.2305E+03
1.2505E+03
1.2709E+03
1.2915E+03
1.3126E+03
1.3339E+03
1.3556E+03
1.3777E+03
1.4001E+03
1.4228E+03
1.4460E+03
1.4695E+03
1.4934E+03
1.5177E+03
1.5424E+03
1.5675E+03
1.5930E+03
1.6189E+03
1.6452E+03
1.6719E+03
1.6991E+03
1.7268E+03
1.7549E+03
1.7834E+03
1.8124E+03
1.8419E+03
1.8719E+03
1.9023E+03
1.9332E+03
1.9647E+03
1.9966E+03
2.0291E+03
2.0621E+03
2.0957E+03
2.1297E+03
2.1644E+03
2.1996E+03
2.2354E+03
2.2717E+03
2.3087E+03
2.3462E+03
2.3844E+03
2.4232E+03
2.4626E+03
2.5026E+03
2.5433E+03
2.5847E+03
2.6268E+03
2.6695E+03
2.7129E+03
2.7570E+03
2.8019E+03
2.8474E+03
2.8938E+03
2.9408E+03
2.9887E+03
3.0373E+03
3.0867E+03
3.1369E+03
3.1879E+03
3.2397E+03
3.2924E+03
3.3460E+03
3.4004E+03
3.4557E+03
3.5119E+03
3.5690E+03
3.6271E+03
3.6861E+03
3.7461E+03
3.8070E+03
3.8689E+03
3.9318E+03
3.9958E+03
4.0608E+03
4.1268E+03
4.1939E+03
4.2622E+03
4.3315E+03
4.4019E+03
4.4735E+03
4.5463E+03
4.6202E+03
4.6954E+03
4.7718E+03
4.8494E+03
4.9282E+03
5.0084E+03
5.0899E+03
5.1727E+03
5.2568E+03
5.3423E+03
5.4292E+03
5.5175E+03
5.6072E+03
5.6984E+03
5.7911E+03
5.8853E+03
5.9810E+03
6.0783E+03
6.1772E+03
6.2777E+03
6.3798E+03
6.4835E+03
6.5890E+03
6.6962E+03
6.8051E+03
6.9158E+03
7.0282E+03
7.1426E+03
7.2587E+03
7.3768E+03
7.4968E+03
7.6187E+03
7.7426E+03
7.8686E+03
7.9966E+03
8.1266E+03
8.2588E+03
8.3931E+03
8.5296E+03
8.6684E+03
8.8094E+03
8.9527E+03
9.0983E+03
9.2463E+03
9.3966E+03
9.5495E+03
9.7048E+03
9.8627E+03
1.0023E+04
1.0186E+04
1.0352E+04
1.0520E+04
1.0691E+04
1.0865E+04
1.1042E+04
1.1221E+04
1.1404E+04
1.1589E+04
1.1778E+04
1.1970E+04
1.2164E+04
1.2362E+04
1.2563E+04
1.2768E+04
1.2975E+04
1.3186E+04
1.3401E+04
1.3619E+04
1.3840E+04
1.4065E+04
1.4294E+04
1.4527E+04
1.4763E+04
1.5003E+04
1.5247E+04
1.5495E+04
1.5747E+04
1.6003E+04
1.6263E+04
1.6528E+04
1.6797E+04
1.7070E+04
1.7348E+04
1.7630E+04
1.7917E+04
1.8208E+04
1.8504E+04
1.8805E+04
1.9111E+04
1.9422E+04
1.9738E+04
2.0059E+04
2.0385E+04
2.0716E+04
2.1053E+04
2.1396E+04
2.1744E+04
2.2098E+04
2.2457E+04
2.2822E+04
2.3193E+04
2.3571E+04
2.3954E+04
2.4344E+04
2.4740E+04
2.5142E+04
2.5551E+04
2.5967E+04
2.6389E+04
2.6818E+04
2.7254E+04
2.7698E+04
2.8148E+04
2.8606E+04
2.9071E+04
2.9544E+04
3.0025E+04
3.0513E+04
3.1009E+04
3.1514E+04
3.2026E+04
3.2547E+04
3.3076E+04
3.3614E+04
3.4161E+04
3.4717E+04
3.5282E+04
3.5855E+04
3.6439E+04
3.7031E+04
3.7634E+04
3.8246E+04
3.8868E+04
3.9500E+04
4.0142E+04
4.0795E+04
4.1459E+04
4.2133E+04
4.2819E+04
4.3515E+04
4.4223E+04
4.4942E+04
4.5673E+04
4.6416E+04
4.7171E+04
4.7938E+04
4.8718E+04
4.9510E+04
5.0315E+04
5.1134E+04
5.1966E+04
5.2811E+04
5.3670E+04
5.4543E+04
5.5430E+04
5.6331E+04
5.7248E+04
5.8179E+04
5.9125E+04
6.0087E+04
6.1064E+04
6.2057E+04
6.3067E+04
6.4092E+04
6.5135E+04
6.6194E+04
6.7271E+04
6.8365E+04
6.9477E+04
7.0607E+04
7.1756E+04
7.2923E+04
7.4109E+04
7.5314E+04
7.6539E+04
7.7784E+04
7.9049E+04
8.0335E+04
8.1642E+04
8.2970E+04
8.4319E+04
8.5691E+04
8.7084E+04
8.8501E+04
8.9940E+04
9.1403E+04
9.2890E+04
9.4401E+04
9.5936E+04
9.7496E+04
9.9082E+04
1.0069E+05
1.0233E+05
1.0400E+05
1.0569E+05
1.0741E+05
1.0915E+05
1.1093E+05
1.1273E+05
1.1457E+05
1.1643E+05
1.1832E+05
1.2025E+05
1.2220E+05
1.2419E+05
1.2621E+05
1.2826E+05
1.3035E+05
1.3247E+05
1.3463E+05
1.3682E+05
1.3904E+05
1.4130E+05
1.4360E+05
1.4594E+05
1.4831E+05
1.5072E+05
1.5317E+05
1.5567E+05
1.5820E+05
1.6077E+05
1.6339E+05
1.6604E+05
1.6874E+05
1.7149E+05
1.7428E+05
1.7711E+05
1.7999E+05
1.8292E+05
1.8590E+05
1.8892E+05
1.9199E+05
1.9511E+05
1.9829E+05
2.0151E+05
2.0479E+05
2.0812E+05
2.1151E+05
2.1495E+05
2.1844E+05
2.2200E+05
2.2561E+05
2.2928E+05
2.3301E+05
2.3680E+05
2.4065E+05
2.4456E+05
2.4854E+05
2.5258E+05
2.5669E+05
2.6087E+05
2.6511E+05
2.6942E+05
2.7380E+05
2.7826E+05
2.8278E+05
2.8738E+05
2.9206E+05
2.9681E+05
3.0163E+05
3.0654E+05
3.1153E+05
3.1659E+05
3.2174E+05
3.2697E+05
3.3229E+05
3.3770E+05
3.4319E+05
3.4877E+05
3.5445E+05
3.6021E+05
3.6607E+05
3.7202E+05
3.7807E+05
3.8422E+05
3.9047E+05
3.9682E+05
4.0328E+05
4.0984E+05
4.1650E+05
4.2328E+05
4.3016E+05
4.3716E+05
4.4427E+05
4.5150E+05
4.5884E+05
4.6630E+05
4.7389E+05
4.8160E+05
4.8943E+05
4.9739E+05
5.0548E+05
5.1370E+05
5.2206E+05
5.3055E+05
5.3918E+05
5.4795E+05
5.5686E+05
5.6592E+05
5.7512E+05
5.8448E+05
5.9398E+05
6.0364E+05
6.1346E+05
6.2344E+05
6.3358E+05
6.4389E+05
6.5436E+05
6.6500E+05
6.7582E+05
6.8681E+05
6.9798E+05
7.0933E+05
7.2087E+05
7.3260E+05
7.4451E+05
7.5662E+05
7.6893E+05
7.8144E+05
7.9415E+05
8.0706E+05
8.2019E+05
8.3353E+05
8.4709E+05
8.6086E+05
8.7487E+05
8.8910E+05
9.0356E+05
9.1825E+05
9.3319E+05
9.4837E+05
9.6379E+05
9.7947E+05
9.9540E+05
1.0116E+06
1.0280E+06
1.0448E+06
1.0618E+06
1.0790E+06
1.0966E+06
1.1144E+06
1.1325E+06
1.1510E+06
1.1697E+06
1.1887E+06
1.2080E+06
1.2277E+06
1.2477E+06
1.2680E+06
1.2886E+06
1.3095E+06
1.3308E+06
1.3525E+06
1.3745E+06
1.3968E+06
1.4196E+06
1.4426E+06
1.4661E+06
1.4900E+06
1.5142E+06
1.5388E+06
1.5638E+06
1.5893E+06
1.6151E+06
1.6414E+06
1.6681E+06
1.6952E+06
1.7228E+06
1.7508E+06
1.7793E+06
1.8082E+06
1.8377E+06
1.8675E+06
1.8979E+06
1.9288E+06
1.9602E+06
1.9920E+06
2.0244E+06
2.0574E+06
2.0908E+06
2.1248E+06
2.1594E+06
2.1945E+06
2.2302E+06
2.2665E+06
2.3034E+06
2.3408E+06
2.3789E+06
2.4176E+06
2.4569E+06
2.4969E+06
2.5375E+06
2.5788E+06
2.6207E+06
2.6633E+06
2.7067E+06
2.7507E+06
2.7954E+06
2.8409E+06
2.8871E+06
2.9340E+06
2.9818E+06
3.0303E+06
3.0796E+06
3.1296E+06
3.1806E+06
3.2323E+06
3.2849E+06
3.3383E+06
3.3926E+06
3.4478E+06
3.5038E+06
3.5608E+06
3.6187E+06
3.6776E+06
3.7374E+06
3.7982E+06
3.8600E+06
3.9228E+06
3.9866E+06
4.0514E+06
4.1173E+06
4.1843E+06
4.2523E+06
4.3215E+06
4.3918E+06
4.4632E+06
4.5358E+06
4.6096E+06
4.6846E+06
4.7608E+06
4.8382E+06
4.9169E+06
4.9969E+06
5.0782E+06
5.1607E+06
5.2447E+06
5.3300E+06
5.4167E+06
5.5048E+06
5.5943E+06
5.6853E+06
5.7778E+06
5.8718E+06
5.9673E+06
6.0643E+06
6.1630E+06
6.2632E+06
6.3651E+06
6.4686E+06
6.5738E+06
6.6807E+06
6.7894E+06
6.8998E+06
7.0121E+06
7.1261E+06
7.2420E+06
7.3598E+06
7.4795E+06
7.6012E+06
7.7248E+06
7.8505E+06
7.9781E+06
8.1079E+06
8.2398E+06
8.3738E+06
8.5100E+06
8.6484E+06
8.7891E+06
8.9320E+06
9.0773E+06
9.2250E+06
9.3750E+06
9.5275E+06
9.6825E+06
9.8400E+06
1.0000E+07